<?xml version="1.0" encoding="utf-8"?>
<!-- Generator: Adobe Illustrator 22.1.0, SVG Export Plug-In . SVG Version: 6.00 Build 0)  -->
<svg version="1.1" id="Слой_1" xmlns="http://www.w3.org/2000/svg" xmlns:xlink="http://www.w3.org/1999/xlink" x="0px" y="0px"
	 viewBox="0 0 364 75" style="enable-background:new 0 0 364 75;" xml:space="preserve">
<style type="text/css">
	.st0{fill:#725580;}
</style>
<g>
	<path class="st0" d="M69,52.3C66,67.9,53.6,75,37.4,75C12.1,75,0,58.1,0,37.4C0,16.1,12.7,0.2,36.4,0.2c15.8,0,29.3,6.9,31.6,23
		H57.5C56.1,11.4,48,4,36,4C18.1,4,10.9,20.8,10.9,37.5c0,17.7,8.4,33.8,25.7,33.8c11.2,0,19.9-6.4,21.9-18.9H69z"/>
	<path class="st0" d="M98.9,74.2V1h10.5v62.6L153.6,1h8.4v73.2h-10.5V11.7l-44.3,62.5H98.9z"/>
	<path class="st0" d="M239.3,52.3h-35.4l-9.7,21.9h-5.3L221.1,1h5.8l34.2,73.2h-11.8L239.3,52.3z M205.8,48.2h31.7L221.6,13
		L205.8,48.2z"/>
	<path class="st0" d="M326.6,60.3l27-58.8V1H364v73.2h-10.5V11.6l-26.8,59.4h-6.4l-28.3-59.3v62.5h-4.2V1h10.9L326.6,60.3z"/>
</g>
</svg>
