<?xml version="1.0" encoding="utf-8"?>
<!-- Generator: Adobe Illustrator 23.0.2, SVG Export Plug-In . SVG Version: 6.00 Build 0)  -->
<svg version="1.1" id="Layer_1" xmlns="http://www.w3.org/2000/svg" xmlns:xlink="http://www.w3.org/1999/xlink" x="0px" y="0px"
	 viewBox="0 0 27 25" style="enable-background:new 0 0 27 25;" xml:space="preserve">
<style type="text/css">
	.st0{fill:#E3C293;}
</style>
<path class="st0" d="M19.7,25c-0.2,0-0.5,0-0.7-0.1c-0.9-0.2-1.8-0.4-2.7-0.6c-2.5-0.7-4.8-1.8-6.9-3.3c-1.3-0.9-2.5-2-3.6-3.2
	C3.7,15.5,2.1,12.9,1,10C0.6,9,0.2,7.9,0.1,6.8c-0.2-1.5,0.1-2.9,1-4.1c0.7-1,1.6-1.8,2.7-2.4c1-0.5,2.5-0.4,3.1,1
	c0.4,1,0.8,1.9,1.2,2.9c0.3,0.7,0.5,1.5,0.7,2.2C9,7.3,8.8,8,8.2,8.6c-0.8,0.8-1.5,1.7-2.3,2.6c-0.1,0.1-0.1,0.2-0.1,0.3
	c0.4,1.1,1,2,1.7,2.9c2,2.4,4.6,3.9,7.4,5.1c0.3,0.1,0.6,0.2,0.9,0.4c0.1,0,0.2,0,0.2,0c0.5-0.6,1-1.2,1.5-1.7
	c0.5-0.6,1.1-1.2,1.6-1.7c0.5-0.5,1.2-0.7,1.9-0.4c0.7,0.3,1.4,0.6,2.2,1c0.7,0.4,1.3,0.8,2,1.2c0.6,0.3,1,0.8,1.1,1.5
	c0.1,0.8-0.1,1.6-0.3,2.3c-0.5,1.4-1.6,2.2-3,2.6c-0.7,0.2-1.4,0.3-2.1,0.4c-0.1,0-0.1,0-0.2,0C20.4,25,20,25,19.7,25z"/>
<path class="st0" d="M14,0.6c4.5,0.1,9.8,2.3,12.1,8.6c0.2,0.5,0,1-0.5,1.2c-0.5,0.2-0.9,0-1.1-0.5c-0.6-1.7-1.5-3.1-2.8-4.4
	c-1.7-1.6-3.7-2.6-6-2.9c-0.8-0.1-1.5-0.1-2.3-0.2c-0.4,0-0.7-0.2-0.8-0.6c-0.1-0.4,0-0.8,0.3-1c0.1-0.1,0.3-0.1,0.4-0.1
	C13.6,0.6,13.8,0.6,14,0.6z"/>
<path class="st0" d="M14,4.4c2.2,0.1,4.1,0.8,5.7,2.4c1,0.9,1.7,2.1,2.2,3.3c0.2,0.5,0,1-0.5,1.2c-0.5,0.2-0.9,0-1.1-0.5
	c-0.5-1.3-1.3-2.4-2.4-3.2c-1.3-1-2.8-1.4-4.4-1.4c-0.7,0-1.1-0.5-0.9-1.2c0.1-0.4,0.4-0.6,0.8-0.6C13.6,4.4,13.8,4.4,14,4.4z"/>
</svg>
